<svg width="23" height="14" viewBox="0 0 23 14" fill="none" xmlns="http://www.w3.org/2000/svg">
<path d="M22.5685 2.008C22.0291 1.07369 20.8274 0.764874 19.9043 1.32344L14.852 4.38081L9.30431 0.735062L5.92992 2.6582L10.2113 7.189L5.01107 10.3358L2.51878 9.20926L0.200012 10.548L3.67293 12.9174L6.57768 13.0493L21.8293 4.65751C22.7745 4.13744 23.108 2.94231 22.5685 2.008Z" fill="#E91D10"/>
</svg>
